%YAML 1.1
%TAG !u! tag:unity3d.com,2011:
--- !u!114 &11400000
MonoBehaviour:
  m_ObjectHideFlags: 0
  m_CorrespondingSourceObject: {fileID: 0}
  m_PrefabInstance: {fileID: 0}
  m_PrefabAsset: {fileID: 0}
  m_GameObject: {fileID: 0}
  m_Enabled: 1
  m_EditorHideFlags: 0
  m_Script: {fileID: 11500000, guid: 1b07b64c714868f469d83f22234c97e0, type: 3}
  m_Name: SoundSettingsPreset
  m_EditorClassIdentifier: 
  AudioMixer: {fileID: 24100000, guid: fa90b9518832efc4e8b6773357c3d985, type: 2}
  MasterVolumeName: Master Volume
  MasterVolume: 0
  MusicVolumeName: Music Volume
  MusicVolume: 0
  MasterSFXVolumeName: MasterSFX Volume
  MasterSFXVolume: 0
  SFXVolumeName: SFX Volume
  SFXVolume: 0
  UIVolumeName: UI Volume
  UIVolume: 0
